<?xml version="1.0" encoding="utf-8"?>
<!-- Generator: Adobe Illustrator 22.0.1, SVG Export Plug-In . SVG Version: 6.00 Build 0)  -->
<svg version="1.1" id="Logo" xmlns="http://www.w3.org/2000/svg" xmlns:xlink="http://www.w3.org/1999/xlink" x="0px" y="0px"
	 viewBox="0 0 104 106.8" style="enable-background:new 0 0 104 106.8;" xml:space="preserve">
<style type="text/css">
	.st0{opacity:0.27;}
	.st1{fill:#FFFFFF;}
</style>
<g id="XMLID_328_">
	<g class="st0">
		<path id="XMLID_16_" d="M64.2,76.4c-11.1,0-19.4-8.1-19.4-19c0-10.7,8.5-18.7,19.8-18.7c5.5,0,11.3,2.4,14.9,6.3l-5.6,6.7
			c-2.4-3-6-4.9-9.2-4.9c-5.7,0-10,4.5-10,10.4c0,6,4.3,10.5,10,10.5c3.1,0,6.6-1.7,9.2-4.3l5.6,6c2-3.8,3.1-8,3.1-12.5
			c0-16.3-13.8-28.5-31.7-28.5H26v57h24.6c12.9,0,23.6-6.2,28.8-15.7C75.4,73.8,69.6,76.4,64.2,76.4z"/>
	</g>
	<g>
		<g>
			<path id="XMLID_13_" class="st1" d="M62.2,72.4c-11.1,0-19.4-8.1-19.4-19c0-10.7,8.5-18.7,19.8-18.7c5.5,0,11.3,2.4,14.9,6.3
				l-5.6,6.7c-2.4-3-6-4.9-9.2-4.9c-5.7,0-10,4.5-10,10.4c0,6,4.3,10.5,10,10.5c3.1,0,6.6-1.7,9.2-4.3l5.6,6c2-3.8,3.1-8,3.1-12.5
				c0-16.3-13.8-28.5-31.7-28.5H24v57h24.6c12.9,0,23.6-6.2,28.8-15.7C73.4,69.8,67.6,72.4,62.2,72.4z"/>
		</g>
	</g>
</g>
</svg>
